…
    [150 rows x 5 columns]

dplyr

``` r
iris %>% arrange(desc(Petal_width))
```

    # A tibble: 150 x 5
       Sepal_length Sepal_width Petal_length Petal_width Species  
              <dbl>       <dbl>        <dbl>       <dbl> <chr>    
     1          6.3         3.3          6           2.5 virginica
     2          7.2         3.6          6.1         2.5 virginica
     3          6.7         3.3          5.7         2.5 virginica
     4          5.8         2.8          5.1         2.4 virginica
     5          6.3         3.4          5.6         2.4 virginica
     6          6.7         3.1          5.6         2.4 virginica
     7          6.4         3.2          5.3         2.3 virginica
     8          7.7         2.6          6.9         2.3 virginica
     9          6.9         3.2          5.7         2.3 virginica
    10          7.7         3            6.1         2.3 virginica
    # ... with 140 more rows
…
    [150 rows x 5 columns]

dplyr

In dplyr you can use the handy relocate() function. Again let’s say we
want to move the column Species to the front.

``` r
iris %>% relocate(Species)
```

    # A tibble: 150 x 5
       Species Sepal_length Sepal_width Petal_length Petal_width
       <chr>          <dbl>       <dbl>        <dbl>       <dbl>
     1 setosa           5.1         3.5          1.4         0.2
     2 setosa           4.9         3            1.4         0.2
     3 setosa           4.7         3.2          1.3         0.2
     4 setosa           4.6         3.1          1.5         0.2
     5 setosa           5           3.6          1.4         0.2
     6 setosa           5.4         3.9          1.7         0.4
     7 setosa           4.6         3.4          1.4         0.3
     8 setosa           5           3.4          1.5         0.2
     9 setosa           4.4         2.9          1.4         0.2
    10 setosa           4.9         3.1          1.5         0.1
    # ... with 140 more rows

Note that you can use .before or .after to place a columne before or
after another.

``` r
iris %>% relocate(Species, .before=Sepal_width)
```

    # A tibble: 150 x 5
       Sepal_length Species Sepal_width Petal_length Petal_width
              <dbl> <chr>         <dbl>        <dbl>       <dbl>
     1          5.1 setosa          3.5          1.4         0.2
     2          4.9 setosa          3            1.4         0.2
     3          4.7 setosa          3.2          1.3         0.2
     4          4.6 setosa          3.1          1.5         0.2
     5          5   setosa          3.6          1.4         0.2
     6          5.4 setosa          3.9          1.7         0.4
     7          4.6 setosa          3.4          1.4         0.3
     8          5   setosa          3.4          1.5         0.2
     9          4.4 setosa          2.9          1.4         0.2
    10          4.9 setosa          3.1          1.5         0.1
    # ... with 140 more rows
…
